<?xml version="1.0" standalone="no"?>
<!DOCTYPE svg PUBLIC "-//W3C//DTD SVG 20010904//EN"
 "http://www.w3.org/TR/2001/REC-SVG-20010904/DTD/svg10.dtd">
<svg version="1.0" xmlns="http://www.w3.org/2000/svg"
 width="512.000000pt" height="512.000000pt" viewBox="0 0 512.000000 512.000000"
 preserveAspectRatio="xMidYMid meet">
<metadata>
Created by potrace 1.11, written by Peter Selinger 2001-2013
</metadata>
<g transform="translate(0.000000,512.000000) scale(0.100000,-0.100000)"
fill="#000000" stroke="none">
<path d="M859 5116 c-2 -2 -24 -6 -49 -9 -98 -12 -240 -75 -341 -153 -152
-116 -271 -313 -297 -493 -9 -63 -9 -2907 1 -2951 23 -111 61 -207 112 -285
107 -162 264 -279 454 -337 59 -18 102 -21 405 -25 l340 -5 200 -171 c111 -95
212 -182 226 -194 168 -146 543 -464 558 -472 11 -6 44 -13 74 -17 43 -5 64
-2 99 14 36 17 248 193 574 477 33 28 142 122 243 208 l183 157 305 0 c337 0
400 7 531 62 185 76 357 252 427 436 58 151 56 85 55 1627 0 855 -4 1443 -10
1478 -49 297 -271 541 -574 633 -57 18 -151 19 -1786 21 -949 2 -1728 1 -1730
-1z"/>
</g>
</svg>
